root://fax.mwt2.org:1094//atlas/rucio/user.mswiatlo:user.mswiatlo.9361374._000001.tree.root
root://fax.mwt2.org:1094//atlas/rucio/user.mswiatlo:user.mswiatlo.9361374._000001.tree.root
root://fax.mwt2.org:1094//atlas/rucio/user.mswiatlo:user.mswiatlo.9361189._000001.tree.root
root://fax.mwt2.org:1094//atlas/rucio/user.mswiatlo:user.mswiatlo.9361189._000002.tree.root
root://fax.mwt2.org:1094//atlas/rucio/user.mswiatlo:user.mswiatlo.9361189._000001.tree.root
root://fax.mwt2.org:1094//atlas/rucio/user.mswiatlo:user.mswiatlo.9361189._000002.tree.root
root://fax.mwt2.org:1094//atlas/rucio/user.mswiatlo:user.mswiatlo.9361310._000001.tree.root
root://fax.mwt2.org:1094//atlas/rucio/user.mswiatlo:user.mswiatlo.9361310._000001.tree.root
root://fax.mwt2.org:1094//atlas/rucio/user.mswiatlo:user.mswiatlo.9361313._000001.tree.root
root://fax.mwt2.org:1094//atlas/rucio/user.mswiatlo:user.mswiatlo.9361313._000001.tree.root
root://fax.mwt2.org:1094//atlas/rucio/user.mswiatlo:user.mswiatlo.9361340._000001.tree.root
root://fax.mwt2.org:1094//atlas/rucio/user.mswiatlo:user.mswiatlo.9361340._000001.tree.root
root://fax.mwt2.org:1094//atlas/rucio/user.mswiatlo:user.mswiatlo.9361293._000001.tree.root
root://fax.mwt2.org:1094//atlas/rucio/user.mswiatlo:user.mswiatlo.9361293._000001.tree.root
root://fax.mwt2.org:1094//atlas/rucio/user.mswiatlo:user.mswiatlo.9361392._000001.tree.root
root://fax.mwt2.org:1094//atlas/rucio/user.mswiatlo:user.mswiatlo.9361392._000001.tree.root
root://fax.mwt2.org:1094//atlas/rucio/user.mswiatlo:user.mswiatlo.9361194._000001.tree.root.2
root://fax.mwt2.org:1094//atlas/rucio/user.mswiatlo:user.mswiatlo.9361194._000002.tree.root
root://fax.mwt2.org:1094//atlas/rucio/user.mswiatlo:user.mswiatlo.9361194._000001.tree.root.2
root://fax.mwt2.org:1094//atlas/rucio/user.mswiatlo:user.mswiatlo.9361194._000002.tree.root
root://fax.mwt2.org:1094//atlas/rucio/user.mswiatlo:user.mswiatlo.9361225._000001.tree.root
root://fax.mwt2.org:1094//atlas/rucio/user.mswiatlo:user.mswiatlo.9361225._000002.tree.root
root://fax.mwt2.org:1094//atlas/rucio/user.mswiatlo:user.mswiatlo.9361225._000001.tree.root
root://fax.mwt2.org:1094//atlas/rucio/user.mswiatlo:user.mswiatlo.9361225._000002.tree.root
root://fax.mwt2.org:1094//atlas/rucio/user.mswiatlo:user.mswiatlo.9361169._000001.tree.root
root://fax.mwt2.org:1094//atlas/rucio/user.mswiatlo:user.mswiatlo.9361169._000001.tree.root
root://fax.mwt2.org:1094//atlas/rucio/user.mswiatlo:user.mswiatlo.9361173._000001.tree.root
root://fax.mwt2.org:1094//atlas/rucio/user.mswiatlo:user.mswiatlo.9361173._000002.tree.root
root://fax.mwt2.org:1094//atlas/rucio/user.mswiatlo:user.mswiatlo.9361173._000001.tree.root
root://fax.mwt2.org:1094//atlas/rucio/user.mswiatlo:user.mswiatlo.9361173._000002.tree.root
root://fax.mwt2.org:1094//atlas/rucio/user.mswiatlo:user.mswiatlo.9361302._000001.tree.root
root://fax.mwt2.org:1094//atlas/rucio/user.mswiatlo:user.mswiatlo.9361302._000002.tree.root
root://fax.mwt2.org:1094//atlas/rucio/user.mswiatlo:user.mswiatlo.9361302._000001.tree.root
root://fax.mwt2.org:1094//atlas/rucio/user.mswiatlo:user.mswiatlo.9361302._000002.tree.root
root://fax.mwt2.org:1094//atlas/rucio/user.mswiatlo:user.mswiatlo.9361115._000001.tree.root
root://fax.mwt2.org:1094//atlas/rucio/user.mswiatlo:user.mswiatlo.9361115._000002.tree.root
root://fax.mwt2.org:1094//atlas/rucio/user.mswiatlo:user.mswiatlo.9361115._000001.tree.root
root://fax.mwt2.org:1094//atlas/rucio/user.mswiatlo:user.mswiatlo.9361115._000002.tree.root
root://fax.mwt2.org:1094//atlas/rucio/user.mswiatlo:user.mswiatlo.9361320._000001.tree.root
root://fax.mwt2.org:1094//atlas/rucio/user.mswiatlo:user.mswiatlo.9361320._000002.tree.root
root://fax.mwt2.org:1094//atlas/rucio/user.mswiatlo:user.mswiatlo.9361320._000001.tree.root
root://fax.mwt2.org:1094//atlas/rucio/user.mswiatlo:user.mswiatlo.9361320._000002.tree.root
root://fax.mwt2.org:1094//atlas/rucio/user.mswiatlo:user.mswiatlo.9361322._000001.tree.root
root://fax.mwt2.org:1094//atlas/rucio/user.mswiatlo:user.mswiatlo.9361322._000001.tree.root
root://fax.mwt2.org:1094//atlas/rucio/user.mswiatlo:user.mswiatlo.9361200._000001.tree.root
root://fax.mwt2.org:1094//atlas/rucio/user.mswiatlo:user.mswiatlo.9361200._000002.tree.root
root://fax.mwt2.org:1094//atlas/rucio/user.mswiatlo:user.mswiatlo.9361200._000001.tree.root
root://fax.mwt2.org:1094//atlas/rucio/user.mswiatlo:user.mswiatlo.9361200._000002.tree.root
root://fax.mwt2.org:1094//atlas/rucio/user.mswiatlo:user.mswiatlo.9361377._000001.tree.root
root://fax.mwt2.org:1094//atlas/rucio/user.mswiatlo:user.mswiatlo.9361377._000001.tree.root
root://fax.mwt2.org:1094//atlas/rucio/user.mswiatlo:user.mswiatlo.9361145._000001.tree.root
root://fax.mwt2.org:1094//atlas/rucio/user.mswiatlo:user.mswiatlo.9361145._000001.tree.root
root://fax.mwt2.org:1094//atlas/rucio/user.mswiatlo:user.mswiatlo.9361182._000001.tree.root
root://fax.mwt2.org:1094//atlas/rucio/user.mswiatlo:user.mswiatlo.9361182._000002.tree.root
root://fax.mwt2.org:1094//atlas/rucio/user.mswiatlo:user.mswiatlo.9361182._000001.tree.root
root://fax.mwt2.org:1094//atlas/rucio/user.mswiatlo:user.mswiatlo.9361182._000002.tree.root
root://fax.mwt2.org:1094//atlas/rucio/user.mswiatlo:user.mswiatlo.9361380._000001.tree.root
root://fax.mwt2.org:1094//atlas/rucio/user.mswiatlo:user.mswiatlo.9361380._000001.tree.root
root://fax.mwt2.org:1094//atlas/rucio/user.mswiatlo:user.mswiatlo.9361316._000001.tree.root
root://fax.mwt2.org:1094//atlas/rucio/user.mswiatlo:user.mswiatlo.9361316._000001.tree.root
root://fax.mwt2.org:1094//atlas/rucio/user.mswiatlo:user.mswiatlo.9361129._000001.tree.root
root://fax.mwt2.org:1094//atlas/rucio/user.mswiatlo:user.mswiatlo.9361129._000001.tree.root
root://fax.mwt2.org:1094//atlas/rucio/user.mswiatlo:user.mswiatlo.9361213._000001.tree.root
root://fax.mwt2.org:1094//atlas/rucio/user.mswiatlo:user.mswiatlo.9361213._000001.tree.root
root://fax.mwt2.org:1094//atlas/rucio/user.mswiatlo:user.mswiatlo.9361235._000001.tree.root
root://fax.mwt2.org:1094//atlas/rucio/user.mswiatlo:user.mswiatlo.9361235._000002.tree.root
root://fax.mwt2.org:1094//atlas/rucio/user.mswiatlo:user.mswiatlo.9361235._000001.tree.root
root://fax.mwt2.org:1094//atlas/rucio/user.mswiatlo:user.mswiatlo.9361235._000002.tree.root
root://fax.mwt2.org:1094//atlas/rucio/user.mswiatlo:user.mswiatlo.9361269._000001.tree.root
root://fax.mwt2.org:1094//atlas/rucio/user.mswiatlo:user.mswiatlo.9361269._000002.tree.root
root://fax.mwt2.org:1094//atlas/rucio/user.mswiatlo:user.mswiatlo.9361269._000001.tree.root
root://fax.mwt2.org:1094//atlas/rucio/user.mswiatlo:user.mswiatlo.9361269._000002.tree.root
root://fax.mwt2.org:1094//atlas/rucio/user.mswiatlo:user.mswiatlo.9361334._000001.tree.root
root://fax.mwt2.org:1094//atlas/rucio/user.mswiatlo:user.mswiatlo.9361334._000001.tree.root
root://fax.mwt2.org:1094//atlas/rucio/user.mswiatlo:user.mswiatlo.9361196._000001.tree.root
root://fax.mwt2.org:1094//atlas/rucio/user.mswiatlo:user.mswiatlo.9361196._000001.tree.root
root://fax.mwt2.org:1094//atlas/rucio/user.mswiatlo:user.mswiatlo.9361337._000001.tree.root
root://fax.mwt2.org:1094//atlas/rucio/user.mswiatlo:user.mswiatlo.9361337._000001.tree.root
root://fax.mwt2.org:1094//atlas/rucio/user.mswiatlo:user.mswiatlo.9361217._000001.tree.root
root://fax.mwt2.org:1094//atlas/rucio/user.mswiatlo:user.mswiatlo.9361217._000002.tree.root
root://fax.mwt2.org:1094//atlas/rucio/user.mswiatlo:user.mswiatlo.9361217._000001.tree.root
root://fax.mwt2.org:1094//atlas/rucio/user.mswiatlo:user.mswiatlo.9361217._000002.tree.root
root://fax.mwt2.org:1094//atlas/rucio/user.mswiatlo:user.mswiatlo.9361275._000001.tree.root
root://fax.mwt2.org:1094//atlas/rucio/user.mswiatlo:user.mswiatlo.9361275._000002.tree.root
root://fax.mwt2.org:1094//atlas/rucio/user.mswiatlo:user.mswiatlo.9361275._000001.tree.root
root://fax.mwt2.org:1094//atlas/rucio/user.mswiatlo:user.mswiatlo.9361275._000002.tree.root
root://fax.mwt2.org:1094//atlas/rucio/user.mswiatlo:user.mswiatlo.9361118._000001.tree.root
root://fax.mwt2.org:1094//atlas/rucio/user.mswiatlo:user.mswiatlo.9361118._000002.tree.root
root://fax.mwt2.org:1094//atlas/rucio/user.mswiatlo:user.mswiatlo.9361118._000001.tree.root
root://fax.mwt2.org:1094//atlas/rucio/user.mswiatlo:user.mswiatlo.9361118._000002.tree.root
root://fax.mwt2.org:1094//atlas/rucio/user.mswiatlo:user.mswiatlo.9361383._000001.tree.root
root://fax.mwt2.org:1094//atlas/rucio/user.mswiatlo:user.mswiatlo.9361383._000001.tree.root
root://fax.mwt2.org:1094//atlas/rucio/user.mswiatlo:user.mswiatlo.9361278._000001.tree.root
root://fax.mwt2.org:1094//atlas/rucio/user.mswiatlo:user.mswiatlo.9361278._000001.tree.root
root://fax.mwt2.org:1094//atlas/rucio/user.mswiatlo:user.mswiatlo.9361347._000001.tree.root
root://fax.mwt2.org:1094//atlas/rucio/user.mswiatlo:user.mswiatlo.9361347._000002.tree.root
root://fax.mwt2.org:1094//atlas/rucio/user.mswiatlo:user.mswiatlo.9361347._000001.tree.root
root://fax.mwt2.org:1094//atlas/rucio/user.mswiatlo:user.mswiatlo.9361347._000002.tree.root
root://fax.mwt2.org:1094//atlas/rucio/user.mswiatlo:user.mswiatlo.9361386._000001.tree.root
root://fax.mwt2.org:1094//atlas/rucio/user.mswiatlo:user.mswiatlo.9361386._000001.tree.root
root://fax.mwt2.org:1094//atlas/rucio/user.mswiatlo:user.mswiatlo.9361151._000001.tree.root
root://fax.mwt2.org:1094//atlas/rucio/user.mswiatlo:user.mswiatlo.9361151._000001.tree.root
root://fax.mwt2.org:1094//atlas/rucio/user.mswiatlo:user.mswiatlo.9361389._000001.tree.root
root://fax.mwt2.org:1094//atlas/rucio/user.mswiatlo:user.mswiatlo.9361389._000001.tree.root
root://fax.mwt2.org:1094//atlas/rucio/user.mswiatlo:user.mswiatlo.9361239._000001.tree.root
root://fax.mwt2.org:1094//atlas/rucio/user.mswiatlo:user.mswiatlo.9361239._000002.tree.root
root://fax.mwt2.org:1094//atlas/rucio/user.mswiatlo:user.mswiatlo.9361239._000001.tree.root
root://fax.mwt2.org:1094//atlas/rucio/user.mswiatlo:user.mswiatlo.9361239._000002.tree.root
root://fax.mwt2.org:1094//atlas/rucio/user.mswiatlo:user.mswiatlo.9361228._000001.tree.root
root://fax.mwt2.org:1094//atlas/rucio/user.mswiatlo:user.mswiatlo.9361228._000002.tree.root
root://fax.mwt2.org:1094//atlas/rucio/user.mswiatlo:user.mswiatlo.9361228._000001.tree.root
root://fax.mwt2.org:1094//atlas/rucio/user.mswiatlo:user.mswiatlo.9361228._000002.tree.root
root://fax.mwt2.org:1094//atlas/rucio/user.mswiatlo:user.mswiatlo.9361160._000001.tree.root
root://fax.mwt2.org:1094//atlas/rucio/user.mswiatlo:user.mswiatlo.9361160._000002.tree.root
root://fax.mwt2.org:1094//atlas/rucio/user.mswiatlo:user.mswiatlo.9361160._000001.tree.root
root://fax.mwt2.org:1094//atlas/rucio/user.mswiatlo:user.mswiatlo.9361160._000002.tree.root
root://fax.mwt2.org:1094//atlas/rucio/user.mswiatlo:user.mswiatlo.9361186._000001.tree.root
root://fax.mwt2.org:1094//atlas/rucio/user.mswiatlo:user.mswiatlo.9361186._000001.tree.root
root://fax.mwt2.org:1094//atlas/rucio/user.mswiatlo:user.mswiatlo.9361163._000001.tree.root
root://fax.mwt2.org:1094//atlas/rucio/user.mswiatlo:user.mswiatlo.9361163._000002.tree.root
root://fax.mwt2.org:1094//atlas/rucio/user.mswiatlo:user.mswiatlo.9361163._000001.tree.root
root://fax.mwt2.org:1094//atlas/rucio/user.mswiatlo:user.mswiatlo.9361163._000002.tree.root
root://fax.mwt2.org:1094//atlas/rucio/user.mswiatlo:user.mswiatlo.9361258._000001.tree.root
root://fax.mwt2.org:1094//atlas/rucio/user.mswiatlo:user.mswiatlo.9361258._000001.tree.root
root://fax.mwt2.org:1094//atlas/rucio/user.mswiatlo:user.mswiatlo.9361299._000001.tree.root
root://fax.mwt2.org:1094//atlas/rucio/user.mswiatlo:user.mswiatlo.9361299._000002.tree.root
root://fax.mwt2.org:1094//atlas/rucio/user.mswiatlo:user.mswiatlo.9361299._000001.tree.root
root://fax.mwt2.org:1094//atlas/rucio/user.mswiatlo:user.mswiatlo.9361299._000002.tree.root
root://fax.mwt2.org:1094//atlas/rucio/user.mswiatlo:user.mswiatlo.9361113._000001.tree.root
root://fax.mwt2.org:1094//atlas/rucio/user.mswiatlo:user.mswiatlo.9361113._000002.tree.root
root://fax.mwt2.org:1094//atlas/rucio/user.mswiatlo:user.mswiatlo.9361113._000001.tree.root
root://fax.mwt2.org:1094//atlas/rucio/user.mswiatlo:user.mswiatlo.9361113._000002.tree.root
root://fax.mwt2.org:1094//atlas/rucio/user.mswiatlo:user.mswiatlo.9361205._000001.tree.root
root://fax.mwt2.org:1094//atlas/rucio/user.mswiatlo:user.mswiatlo.9361205._000002.tree.root
root://fax.mwt2.org:1094//atlas/rucio/user.mswiatlo:user.mswiatlo.9361205._000001.tree.root
root://fax.mwt2.org:1094//atlas/rucio/user.mswiatlo:user.mswiatlo.9361205._000002.tree.root
root://fax.mwt2.org:1094//atlas/rucio/user.mswiatlo:user.mswiatlo.9361247._000001.tree.root
root://fax.mwt2.org:1094//atlas/rucio/user.mswiatlo:user.mswiatlo.9361247._000001.tree.root
root://fax.mwt2.org:1094//atlas/rucio/user.mswiatlo:user.mswiatlo.9361264._000001.tree.root
root://fax.mwt2.org:1094//atlas/rucio/user.mswiatlo:user.mswiatlo.9361264._000002.tree.root
root://fax.mwt2.org:1094//atlas/rucio/user.mswiatlo:user.mswiatlo.9361264._000001.tree.root
root://fax.mwt2.org:1094//atlas/rucio/user.mswiatlo:user.mswiatlo.9361264._000002.tree.root
root://fax.mwt2.org:1094//atlas/rucio/user.mswiatlo:user.mswiatlo.9361356._000001.tree.root
root://fax.mwt2.org:1094//atlas/rucio/user.mswiatlo:user.mswiatlo.9361356._000002.tree.root
root://fax.mwt2.org:1094//atlas/rucio/user.mswiatlo:user.mswiatlo.9361356._000001.tree.root
root://fax.mwt2.org:1094//atlas/rucio/user.mswiatlo:user.mswiatlo.9361356._000002.tree.root
root://fax.mwt2.org:1094//atlas/rucio/user.mswiatlo:user.mswiatlo.9361219._000001.tree.root
root://fax.mwt2.org:1094//atlas/rucio/user.mswiatlo:user.mswiatlo.9361219._000001.tree.root
root://fax.mwt2.org:1094//atlas/rucio/user.mswiatlo:user.mswiatlo.9361364._000001.tree.root
root://fax.mwt2.org:1094//atlas/rucio/user.mswiatlo:user.mswiatlo.9361364._000002.tree.root
root://fax.mwt2.org:1094//atlas/rucio/user.mswiatlo:user.mswiatlo.9361364._000001.tree.root
root://fax.mwt2.org:1094//atlas/rucio/user.mswiatlo:user.mswiatlo.9361364._000002.tree.root
root://fax.mwt2.org:1094//atlas/rucio/user.mswiatlo:user.mswiatlo.9361255._000001.tree.root
root://fax.mwt2.org:1094//atlas/rucio/user.mswiatlo:user.mswiatlo.9361255._000002.tree.root
root://fax.mwt2.org:1094//atlas/rucio/user.mswiatlo:user.mswiatlo.9361255._000001.tree.root
root://fax.mwt2.org:1094//atlas/rucio/user.mswiatlo:user.mswiatlo.9361255._000002.tree.root
root://fax.mwt2.org:1094//atlas/rucio/user.mswiatlo:user.mswiatlo.9361297._000001.tree.root
root://fax.mwt2.org:1094//atlas/rucio/user.mswiatlo:user.mswiatlo.9361297._000001.tree.root
root://fax.mwt2.org:1094//atlas/rucio/user.mswiatlo:user.mswiatlo.9361142._000001.tree.root
root://fax.mwt2.org:1094//atlas/rucio/user.mswiatlo:user.mswiatlo.9361142._000002.tree.root
root://fax.mwt2.org:1094//atlas/rucio/user.mswiatlo:user.mswiatlo.9361142._000001.tree.root
root://fax.mwt2.org:1094//atlas/rucio/user.mswiatlo:user.mswiatlo.9361142._000002.tree.root
root://fax.mwt2.org:1094//atlas/rucio/user.mswiatlo:user.mswiatlo.9361325._000001.tree.root
root://fax.mwt2.org:1094//atlas/rucio/user.mswiatlo:user.mswiatlo.9361325._000002.tree.root
root://fax.mwt2.org:1094//atlas/rucio/user.mswiatlo:user.mswiatlo.9361325._000001.tree.root
root://fax.mwt2.org:1094//atlas/rucio/user.mswiatlo:user.mswiatlo.9361325._000002.tree.root
root://fax.mwt2.org:1094//atlas/rucio/user.mswiatlo:user.mswiatlo.9361230._000001.tree.root
root://fax.mwt2.org:1094//atlas/rucio/user.mswiatlo:user.mswiatlo.9361230._000002.tree.root
root://fax.mwt2.org:1094//atlas/rucio/user.mswiatlo:user.mswiatlo.9361230._000001.tree.root
root://fax.mwt2.org:1094//atlas/rucio/user.mswiatlo:user.mswiatlo.9361230._000002.tree.root
root://fax.mwt2.org:1094//atlas/rucio/user.mswiatlo:user.mswiatlo.9361250._000001.tree.root
root://fax.mwt2.org:1094//atlas/rucio/user.mswiatlo:user.mswiatlo.9361250._000001.tree.root
root://fax.mwt2.org:1094//atlas/rucio/user.mswiatlo:user.mswiatlo.9361198._000001.tree.root
root://fax.mwt2.org:1094//atlas/rucio/user.mswiatlo:user.mswiatlo.9361198._000002.tree.root.2
root://fax.mwt2.org:1094//atlas/rucio/user.mswiatlo:user.mswiatlo.9361198._000001.tree.root
root://fax.mwt2.org:1094//atlas/rucio/user.mswiatlo:user.mswiatlo.9361198._000002.tree.root.2
root://fax.mwt2.org:1094//atlas/rucio/user.mswiatlo:user.mswiatlo.9361261._000001.tree.root
root://fax.mwt2.org:1094//atlas/rucio/user.mswiatlo:user.mswiatlo.9361261._000002.tree.root
root://fax.mwt2.org:1094//atlas/rucio/user.mswiatlo:user.mswiatlo.9361261._000001.tree.root
root://fax.mwt2.org:1094//atlas/rucio/user.mswiatlo:user.mswiatlo.9361261._000002.tree.root
root://fax.mwt2.org:1094//atlas/rucio/user.mswiatlo:user.mswiatlo.9361328._000001.tree.root
root://fax.mwt2.org:1094//atlas/rucio/user.mswiatlo:user.mswiatlo.9361328._000002.tree.root
root://fax.mwt2.org:1094//atlas/rucio/user.mswiatlo:user.mswiatlo.9361328._000001.tree.root
root://fax.mwt2.org:1094//atlas/rucio/user.mswiatlo:user.mswiatlo.9361328._000002.tree.root
root://fax.mwt2.org:1094//atlas/rucio/user.mswiatlo:user.mswiatlo.9361372._000001.tree.root
root://fax.mwt2.org:1094//atlas/rucio/user.mswiatlo:user.mswiatlo.9361372._000002.tree.root
root://fax.mwt2.org:1094//atlas/rucio/user.mswiatlo:user.mswiatlo.9361372._000001.tree.root
root://fax.mwt2.org:1094//atlas/rucio/user.mswiatlo:user.mswiatlo.9361372._000002.tree.root
root://fax.mwt2.org:1094//atlas/rucio/user.mswiatlo:user.mswiatlo.9361202._000001.tree.root
root://fax.mwt2.org:1094//atlas/rucio/user.mswiatlo:user.mswiatlo.9361202._000001.tree.root
root://fax.mwt2.org:1094//atlas/rucio/user.mswiatlo:user.mswiatlo.9361176._000001.tree.root.2
root://fax.mwt2.org:1094//atlas/rucio/user.mswiatlo:user.mswiatlo.9361176._000002.tree.root
root://fax.mwt2.org:1094//atlas/rucio/user.mswiatlo:user.mswiatlo.9361176._000001.tree.root.2
root://fax.mwt2.org:1094//atlas/rucio/user.mswiatlo:user.mswiatlo.9361176._000002.tree.root
root://fax.mwt2.org:1094//atlas/rucio/user.mswiatlo:user.mswiatlo.9361368._000001.tree.root
root://fax.mwt2.org:1094//atlas/rucio/user.mswiatlo:user.mswiatlo.9361368._000002.tree.root
root://fax.mwt2.org:1094//atlas/rucio/user.mswiatlo:user.mswiatlo.9361368._000001.tree.root
root://fax.mwt2.org:1094//atlas/rucio/user.mswiatlo:user.mswiatlo.9361368._000002.tree.root
root://fax.mwt2.org:1094//atlas/rucio/user.mswiatlo:user.mswiatlo.9361272._000001.tree.root
root://fax.mwt2.org:1094//atlas/rucio/user.mswiatlo:user.mswiatlo.9361272._000002.tree.root
root://fax.mwt2.org:1094//atlas/rucio/user.mswiatlo:user.mswiatlo.9361272._000001.tree.root
root://fax.mwt2.org:1094//atlas/rucio/user.mswiatlo:user.mswiatlo.9361272._000002.tree.root
root://fax.mwt2.org:1094//atlas/rucio/user.mswiatlo:user.mswiatlo.9361399._000001.tree.root
root://fax.mwt2.org:1094//atlas/rucio/user.mswiatlo:user.mswiatlo.9361399._000002.tree.root
root://fax.mwt2.org:1094//atlas/rucio/user.mswiatlo:user.mswiatlo.9361399._000001.tree.root
root://fax.mwt2.org:1094//atlas/rucio/user.mswiatlo:user.mswiatlo.9361399._000002.tree.root
root://fax.mwt2.org:1094//atlas/rucio/user.mswiatlo:user.mswiatlo.9361284._000001.tree.root
root://fax.mwt2.org:1094//atlas/rucio/user.mswiatlo:user.mswiatlo.9361284._000001.tree.root
root://fax.mwt2.org:1094//atlas/rucio/user.mswiatlo:user.mswiatlo.9361304._000001.tree.root
root://fax.mwt2.org:1094//atlas/rucio/user.mswiatlo:user.mswiatlo.9361304._000002.tree.root
root://fax.mwt2.org:1094//atlas/rucio/user.mswiatlo:user.mswiatlo.9361304._000001.tree.root
root://fax.mwt2.org:1094//atlas/rucio/user.mswiatlo:user.mswiatlo.9361304._000002.tree.root
root://fax.mwt2.org:1094//atlas/rucio/user.mswiatlo:user.mswiatlo.9361165._000001.tree.root
root://fax.mwt2.org:1094//atlas/rucio/user.mswiatlo:user.mswiatlo.9361165._000002.tree.root
root://fax.mwt2.org:1094//atlas/rucio/user.mswiatlo:user.mswiatlo.9361165._000001.tree.root
root://fax.mwt2.org:1094//atlas/rucio/user.mswiatlo:user.mswiatlo.9361165._000002.tree.root
root://fax.mwt2.org:1094//atlas/rucio/user.mswiatlo:user.mswiatlo.9361401._000001.tree.root
root://fax.mwt2.org:1094//atlas/rucio/user.mswiatlo:user.mswiatlo.9361401._000002.tree.root
root://fax.mwt2.org:1094//atlas/rucio/user.mswiatlo:user.mswiatlo.9361401._000001.tree.root
root://fax.mwt2.org:1094//atlas/rucio/user.mswiatlo:user.mswiatlo.9361401._000002.tree.root
root://fax.mwt2.org:1094//atlas/rucio/user.mswiatlo:user.mswiatlo.9361122._000001.tree.root
root://fax.mwt2.org:1094//atlas/rucio/user.mswiatlo:user.mswiatlo.9361122._000001.tree.root
root://fax.mwt2.org:1094//atlas/rucio/user.mswiatlo:user.mswiatlo.9361208._000001.tree.root
root://fax.mwt2.org:1094//atlas/rucio/user.mswiatlo:user.mswiatlo.9361208._000002.tree.root
root://fax.mwt2.org:1094//atlas/rucio/user.mswiatlo:user.mswiatlo.9361208._000001.tree.root
root://fax.mwt2.org:1094//atlas/rucio/user.mswiatlo:user.mswiatlo.9361208._000002.tree.root
root://fax.mwt2.org:1094//atlas/rucio/user.mswiatlo:user.mswiatlo.9361252._000001.tree.root
root://fax.mwt2.org:1094//atlas/rucio/user.mswiatlo:user.mswiatlo.9361252._000001.tree.root
root://fax.mwt2.org:1094//atlas/rucio/user.mswiatlo:user.mswiatlo.9361184._000001.tree.root
root://fax.mwt2.org:1094//atlas/rucio/user.mswiatlo:user.mswiatlo.9361184._000002.tree.root
root://fax.mwt2.org:1094//atlas/rucio/user.mswiatlo:user.mswiatlo.9361184._000001.tree.root
root://fax.mwt2.org:1094//atlas/rucio/user.mswiatlo:user.mswiatlo.9361184._000002.tree.root
root://fax.mwt2.org:1094//atlas/rucio/user.mswiatlo:user.mswiatlo.9361353._000001.tree.root
root://fax.mwt2.org:1094//atlas/rucio/user.mswiatlo:user.mswiatlo.9361353._000002.tree.root
root://fax.mwt2.org:1094//atlas/rucio/user.mswiatlo:user.mswiatlo.9361353._000001.tree.root
root://fax.mwt2.org:1094//atlas/rucio/user.mswiatlo:user.mswiatlo.9361353._000002.tree.root
root://fax.mwt2.org:1094//atlas/rucio/user.mswiatlo:user.mswiatlo.9361266._000001.tree.root
root://fax.mwt2.org:1094//atlas/rucio/user.mswiatlo:user.mswiatlo.9361266._000002.tree.root
root://fax.mwt2.org:1094//atlas/rucio/user.mswiatlo:user.mswiatlo.9361266._000001.tree.root
root://fax.mwt2.org:1094//atlas/rucio/user.mswiatlo:user.mswiatlo.9361266._000002.tree.root
root://fax.mwt2.org:1094//atlas/rucio/user.mswiatlo:user.mswiatlo.9361222._000001.tree.root
root://fax.mwt2.org:1094//atlas/rucio/user.mswiatlo:user.mswiatlo.9361222._000002.tree.root
root://fax.mwt2.org:1094//atlas/rucio/user.mswiatlo:user.mswiatlo.9361222._000001.tree.root
root://fax.mwt2.org:1094//atlas/rucio/user.mswiatlo:user.mswiatlo.9361222._000002.tree.root
root://fax.mwt2.org:1094//atlas/rucio/user.mswiatlo:user.mswiatlo.9361178._000001.tree.root
root://fax.mwt2.org:1094//atlas/rucio/user.mswiatlo:user.mswiatlo.9361178._000002.tree.root
root://fax.mwt2.org:1094//atlas/rucio/user.mswiatlo:user.mswiatlo.9361178._000001.tree.root
root://fax.mwt2.org:1094//atlas/rucio/user.mswiatlo:user.mswiatlo.9361178._000002.tree.root
root://fax.mwt2.org:1094//atlas/rucio/user.mswiatlo:user.mswiatlo.9361342._000001.tree.root
root://fax.mwt2.org:1094//atlas/rucio/user.mswiatlo:user.mswiatlo.9361342._000002.tree.root
root://fax.mwt2.org:1094//atlas/rucio/user.mswiatlo:user.mswiatlo.9361342._000001.tree.root
root://fax.mwt2.org:1094//atlas/rucio/user.mswiatlo:user.mswiatlo.9361342._000002.tree.root
root://fax.mwt2.org:1094//atlas/rucio/user.mswiatlo:user.mswiatlo.9361344._000001.tree.root
root://fax.mwt2.org:1094//atlas/rucio/user.mswiatlo:user.mswiatlo.9361344._000002.tree.root
root://fax.mwt2.org:1094//atlas/rucio/user.mswiatlo:user.mswiatlo.9361344._000001.tree.root
root://fax.mwt2.org:1094//atlas/rucio/user.mswiatlo:user.mswiatlo.9361344._000002.tree.root
root://fax.mwt2.org:1094//atlas/rucio/user.mswiatlo:user.mswiatlo.9361125._000001.tree.root
root://fax.mwt2.org:1094//atlas/rucio/user.mswiatlo:user.mswiatlo.9361125._000002.tree.root
root://fax.mwt2.org:1094//atlas/rucio/user.mswiatlo:user.mswiatlo.9361125._000001.tree.root
root://fax.mwt2.org:1094//atlas/rucio/user.mswiatlo:user.mswiatlo.9361125._000002.tree.root
root://fax.mwt2.org:1094//atlas/rucio/user.mswiatlo:user.mswiatlo.9361243._000001.tree.root
root://fax.mwt2.org:1094//atlas/rucio/user.mswiatlo:user.mswiatlo.9361243._000002.tree.root
root://fax.mwt2.org:1094//atlas/rucio/user.mswiatlo:user.mswiatlo.9361243._000001.tree.root
root://fax.mwt2.org:1094//atlas/rucio/user.mswiatlo:user.mswiatlo.9361243._000002.tree.root
root://fax.mwt2.org:1094//atlas/rucio/user.mswiatlo:user.mswiatlo.9361361._000001.tree.root
root://fax.mwt2.org:1094//atlas/rucio/user.mswiatlo:user.mswiatlo.9361361._000001.tree.root
root://fax.mwt2.org:1094//atlas/rucio/user.mswiatlo:user.mswiatlo.9361281._000001.tree.root
root://fax.mwt2.org:1094//atlas/rucio/user.mswiatlo:user.mswiatlo.9361281._000002.tree.root
root://fax.mwt2.org:1094//atlas/rucio/user.mswiatlo:user.mswiatlo.9361281._000001.tree.root
root://fax.mwt2.org:1094//atlas/rucio/user.mswiatlo:user.mswiatlo.9361281._000002.tree.root
root://fax.mwt2.org:1094//atlas/rucio/user.mswiatlo:user.mswiatlo.9361233._000001.tree.root
root://fax.mwt2.org:1094//atlas/rucio/user.mswiatlo:user.mswiatlo.9361233._000002.tree.root
root://fax.mwt2.org:1094//atlas/rucio/user.mswiatlo:user.mswiatlo.9361233._000001.tree.root
root://fax.mwt2.org:1094//atlas/rucio/user.mswiatlo:user.mswiatlo.9361233._000002.tree.root
root://fax.mwt2.org:1094//atlas/rucio/user.mswiatlo:user.mswiatlo.9361307._000001.tree.root
root://fax.mwt2.org:1094//atlas/rucio/user.mswiatlo:user.mswiatlo.9361307._000002.tree.root
root://fax.mwt2.org:1094//atlas/rucio/user.mswiatlo:user.mswiatlo.9361307._000001.tree.root
root://fax.mwt2.org:1094//atlas/rucio/user.mswiatlo:user.mswiatlo.9361307._000002.tree.root
root://fax.mwt2.org:1094//atlas/rucio/user.mswiatlo:user.mswiatlo.9361351._000001.tree.root
root://fax.mwt2.org:1094//atlas/rucio/user.mswiatlo:user.mswiatlo.9361351._000002.tree.root
root://fax.mwt2.org:1094//atlas/rucio/user.mswiatlo:user.mswiatlo.9361351._000001.tree.root
root://fax.mwt2.org:1094//atlas/rucio/user.mswiatlo:user.mswiatlo.9361351._000002.tree.root
root://fax.mwt2.org:1094//atlas/rucio/user.mswiatlo:user.mswiatlo.9361290._000001.tree.root
root://fax.mwt2.org:1094//atlas/rucio/user.mswiatlo:user.mswiatlo.9361290._000002.tree.root
root://fax.mwt2.org:1094//atlas/rucio/user.mswiatlo:user.mswiatlo.9361290._000001.tree.root
root://fax.mwt2.org:1094//atlas/rucio/user.mswiatlo:user.mswiatlo.9361290._000002.tree.root
root://fax.mwt2.org:1094//atlas/rucio/user.mswiatlo:user.mswiatlo.9361137._000001.tree.root
root://fax.mwt2.org:1094//atlas/rucio/user.mswiatlo:user.mswiatlo.9361137._000002.tree.root
root://fax.mwt2.org:1094//atlas/rucio/user.mswiatlo:user.mswiatlo.9361137._000001.tree.root
root://fax.mwt2.org:1094//atlas/rucio/user.mswiatlo:user.mswiatlo.9361137._000002.tree.root
root://fax.mwt2.org:1094//atlas/rucio/user.mswiatlo:user.mswiatlo.9361167._000001.tree.root
root://fax.mwt2.org:1094//atlas/rucio/user.mswiatlo:user.mswiatlo.9361167._000002.tree.root.2
root://fax.mwt2.org:1094//atlas/rucio/user.mswiatlo:user.mswiatlo.9361167._000001.tree.root
root://fax.mwt2.org:1094//atlas/rucio/user.mswiatlo:user.mswiatlo.9361167._000002.tree.root.2
root://fax.mwt2.org:1094//atlas/rucio/user.mswiatlo:user.mswiatlo.9361132._000001.tree.root
root://fax.mwt2.org:1094//atlas/rucio/user.mswiatlo:user.mswiatlo.9361132._000002.tree.root
root://fax.mwt2.org:1094//atlas/rucio/user.mswiatlo:user.mswiatlo.9361132._000001.tree.root
root://fax.mwt2.org:1094//atlas/rucio/user.mswiatlo:user.mswiatlo.9361132._000002.tree.root
root://fax.mwt2.org:1094//atlas/rucio/user.mswiatlo:user.mswiatlo.9361156._000001.tree.root
root://fax.mwt2.org:1094//atlas/rucio/user.mswiatlo:user.mswiatlo.9361156._000002.tree.root
root://fax.mwt2.org:1094//atlas/rucio/user.mswiatlo:user.mswiatlo.9361156._000001.tree.root
root://fax.mwt2.org:1094//atlas/rucio/user.mswiatlo:user.mswiatlo.9361156._000002.tree.root
root://fax.mwt2.org:1094//atlas/rucio/user.mswiatlo:user.mswiatlo.9361395._000001.tree.root
root://fax.mwt2.org:1094//atlas/rucio/user.mswiatlo:user.mswiatlo.9361395._000002.tree.root
root://fax.mwt2.org:1094//atlas/rucio/user.mswiatlo:user.mswiatlo.9361395._000001.tree.root
root://fax.mwt2.org:1094//atlas/rucio/user.mswiatlo:user.mswiatlo.9361395._000002.tree.root
root://fax.mwt2.org:1094//atlas/rucio/user.mswiatlo:user.mswiatlo.9361359._000001.tree.root
root://fax.mwt2.org:1094//atlas/rucio/user.mswiatlo:user.mswiatlo.9361359._000002.tree.root
root://fax.mwt2.org:1094//atlas/rucio/user.mswiatlo:user.mswiatlo.9361359._000001.tree.root
root://fax.mwt2.org:1094//atlas/rucio/user.mswiatlo:user.mswiatlo.9361359._000002.tree.root
root://fax.mwt2.org:1094//atlas/rucio/user.mswiatlo:user.mswiatlo.9361370._000001.tree.root
root://fax.mwt2.org:1094//atlas/rucio/user.mswiatlo:user.mswiatlo.9361370._000002.tree.root
root://fax.mwt2.org:1094//atlas/rucio/user.mswiatlo:user.mswiatlo.9361370._000001.tree.root
root://fax.mwt2.org:1094//atlas/rucio/user.mswiatlo:user.mswiatlo.9361370._000002.tree.root
root://fax.mwt2.org:1094//atlas/rucio/user.mswiatlo:user.mswiatlo.9361210._000002.tree.root
root://fax.mwt2.org:1094//atlas/rucio/user.mswiatlo:user.mswiatlo.9361210._000003.tree.root
root://fax.mwt2.org:1094//atlas/rucio/user.mswiatlo:user.mswiatlo.9361210._000002.tree.root
root://fax.mwt2.org:1094//atlas/rucio/user.mswiatlo:user.mswiatlo.9361210._000003.tree.root
root://fax.mwt2.org:1094//atlas/rucio/user.mswiatlo:user.mswiatlo.9361330._000001.tree.root
root://fax.mwt2.org:1094//atlas/rucio/user.mswiatlo:user.mswiatlo.9361330._000002.tree.root
root://fax.mwt2.org:1094//atlas/rucio/user.mswiatlo:user.mswiatlo.9361330._000001.tree.root
root://fax.mwt2.org:1094//atlas/rucio/user.mswiatlo:user.mswiatlo.9361330._000002.tree.root
root://fax.mwt2.org:1094//atlas/rucio/user.mswiatlo:user.mswiatlo.9361288._000001.tree.root
root://fax.mwt2.org:1094//atlas/rucio/user.mswiatlo:user.mswiatlo.9361288._000002.tree.root
root://fax.mwt2.org:1094//atlas/rucio/user.mswiatlo:user.mswiatlo.9361288._000001.tree.root
root://fax.mwt2.org:1094//atlas/rucio/user.mswiatlo:user.mswiatlo.9361288._000002.tree.root
root://fax.mwt2.org:1094//atlas/rucio/user.mswiatlo:user.mswiatlo.9361448._000001.tree.root
root://fax.mwt2.org:1094//atlas/rucio/user.mswiatlo:user.mswiatlo.9361448._000002.tree.root
root://fax.mwt2.org:1094//atlas/rucio/user.mswiatlo:user.mswiatlo.9361448._000001.tree.root
root://fax.mwt2.org:1094//atlas/rucio/user.mswiatlo:user.mswiatlo.9361448._000002.tree.root
root://fax.mwt2.org:1094//atlas/rucio/user.mswiatlo:user.mswiatlo.9361500._000001.tree.root
root://fax.mwt2.org:1094//atlas/rucio/user.mswiatlo:user.mswiatlo.9361500._000001.tree.root
root://fax.mwt2.org:1094//atlas/rucio/user.mswiatlo:user.mswiatlo.9361454._000001.tree.root
root://fax.mwt2.org:1094//atlas/rucio/user.mswiatlo:user.mswiatlo.9361454._000002.tree.root
root://fax.mwt2.org:1094//atlas/rucio/user.mswiatlo:user.mswiatlo.9361454._000001.tree.root
root://fax.mwt2.org:1094//atlas/rucio/user.mswiatlo:user.mswiatlo.9361454._000002.tree.root
root://fax.mwt2.org:1094//atlas/rucio/user.mswiatlo:user.mswiatlo.9361481._000001.tree.root
root://fax.mwt2.org:1094//atlas/rucio/user.mswiatlo:user.mswiatlo.9361481._000002.tree.root
root://fax.mwt2.org:1094//atlas/rucio/user.mswiatlo:user.mswiatlo.9361481._000001.tree.root
root://fax.mwt2.org:1094//atlas/rucio/user.mswiatlo:user.mswiatlo.9361481._000002.tree.root
root://fax.mwt2.org:1094//atlas/rucio/user.mswiatlo:user.mswiatlo.9361540._000001.tree.root
root://fax.mwt2.org:1094//atlas/rucio/user.mswiatlo:user.mswiatlo.9361540._000001.tree.root
root://fax.mwt2.org:1094//atlas/rucio/user.mswiatlo:user.mswiatlo.9361686._000001.tree.root
root://fax.mwt2.org:1094//atlas/rucio/user.mswiatlo:user.mswiatlo.9361686._000002.tree.root
root://fax.mwt2.org:1094//atlas/rucio/user.mswiatlo:user.mswiatlo.9361686._000001.tree.root
root://fax.mwt2.org:1094//atlas/rucio/user.mswiatlo:user.mswiatlo.9361686._000002.tree.root
root://fax.mwt2.org:1094//atlas/rucio/user.mswiatlo:user.mswiatlo.9361459._000001.tree.root
root://fax.mwt2.org:1094//atlas/rucio/user.mswiatlo:user.mswiatlo.9361459._000001.tree.root
root://fax.mwt2.org:1094//atlas/rucio/user.mswiatlo:user.mswiatlo.9361603._000001.tree.root
root://fax.mwt2.org:1094//atlas/rucio/user.mswiatlo:user.mswiatlo.9361603._000002.tree.root
root://fax.mwt2.org:1094//atlas/rucio/user.mswiatlo:user.mswiatlo.9361603._000001.tree.root
root://fax.mwt2.org:1094//atlas/rucio/user.mswiatlo:user.mswiatlo.9361603._000002.tree.root
root://fax.mwt2.org:1094//atlas/rucio/user.mswiatlo:user.mswiatlo.9361511._000001.tree.root
root://fax.mwt2.org:1094//atlas/rucio/user.mswiatlo:user.mswiatlo.9361511._000002.tree.root
root://fax.mwt2.org:1094//atlas/rucio/user.mswiatlo:user.mswiatlo.9361511._000001.tree.root
root://fax.mwt2.org:1094//atlas/rucio/user.mswiatlo:user.mswiatlo.9361511._000002.tree.root
root://fax.mwt2.org:1094//atlas/rucio/user.mswiatlo:user.mswiatlo.9361597._000001.tree.root
root://fax.mwt2.org:1094//atlas/rucio/user.mswiatlo:user.mswiatlo.9361597._000002.tree.root
root://fax.mwt2.org:1094//atlas/rucio/user.mswiatlo:user.mswiatlo.9361597._000001.tree.root
root://fax.mwt2.org:1094//atlas/rucio/user.mswiatlo:user.mswiatlo.9361597._000002.tree.root
root://fax.mwt2.org:1094//atlas/rucio/user.mswiatlo:user.mswiatlo.9361607._000001.tree.root
root://fax.mwt2.org:1094//atlas/rucio/user.mswiatlo:user.mswiatlo.9361607._000002.tree.root
root://fax.mwt2.org:1094//atlas/rucio/user.mswiatlo:user.mswiatlo.9361607._000001.tree.root
root://fax.mwt2.org:1094//atlas/rucio/user.mswiatlo:user.mswiatlo.9361607._000002.tree.root
root://fax.mwt2.org:1094//atlas/rucio/user.mswiatlo:user.mswiatlo.9361471._000001.tree.root
root://fax.mwt2.org:1094//atlas/rucio/user.mswiatlo:user.mswiatlo.9361471._000001.tree.root
root://fax.mwt2.org:1094//atlas/rucio/user.mswiatlo:user.mswiatlo.9361637._000001.tree.root
root://fax.mwt2.org:1094//atlas/rucio/user.mswiatlo:user.mswiatlo.9361637._000002.tree.root
root://fax.mwt2.org:1094//atlas/rucio/user.mswiatlo:user.mswiatlo.9361637._000001.tree.root
root://fax.mwt2.org:1094//atlas/rucio/user.mswiatlo:user.mswiatlo.9361637._000002.tree.root
root://fax.mwt2.org:1094//atlas/rucio/user.mswiatlo:user.mswiatlo.9361457._000001.tree.root
root://fax.mwt2.org:1094//atlas/rucio/user.mswiatlo:user.mswiatlo.9361457._000001.tree.root
root://fax.mwt2.org:1094//atlas/rucio/user.mswiatlo:user.mswiatlo.9361474._000001.tree.root
root://fax.mwt2.org:1094//atlas/rucio/user.mswiatlo:user.mswiatlo.9361474._000001.tree.root
root://fax.mwt2.org:1094//atlas/rucio/user.mswiatlo:user.mswiatlo.9361495._000001.tree.root
root://fax.mwt2.org:1094//atlas/rucio/user.mswiatlo:user.mswiatlo.9361495._000001.tree.root
root://fax.mwt2.org:1094//atlas/rucio/user.mswiatlo:user.mswiatlo.9361490._000001.tree.root
root://fax.mwt2.org:1094//atlas/rucio/user.mswiatlo:user.mswiatlo.9361490._000001.tree.root
root://fax.mwt2.org:1094//atlas/rucio/user.mswiatlo:user.mswiatlo.9361451._000001.tree.root
root://fax.mwt2.org:1094//atlas/rucio/user.mswiatlo:user.mswiatlo.9361451._000001.tree.root
root://fax.mwt2.org:1094//atlas/rucio/user.mswiatlo:user.mswiatlo.9361572._000001.tree.root
root://fax.mwt2.org:1094//atlas/rucio/user.mswiatlo:user.mswiatlo.9361572._000002.tree.root
root://fax.mwt2.org:1094//atlas/rucio/user.mswiatlo:user.mswiatlo.9361572._000001.tree.root
root://fax.mwt2.org:1094//atlas/rucio/user.mswiatlo:user.mswiatlo.9361572._000002.tree.root
root://fax.mwt2.org:1094//atlas/rucio/user.mswiatlo:user.mswiatlo.9361697._000001.tree.root
root://fax.mwt2.org:1094//atlas/rucio/user.mswiatlo:user.mswiatlo.9361697._000002.tree.root
root://fax.mwt2.org:1094//atlas/rucio/user.mswiatlo:user.mswiatlo.9361697._000001.tree.root
root://fax.mwt2.org:1094//atlas/rucio/user.mswiatlo:user.mswiatlo.9361697._000002.tree.root
root://fax.mwt2.org:1094//atlas/rucio/user.mswiatlo:user.mswiatlo.9361530._000001.tree.root
root://fax.mwt2.org:1094//atlas/rucio/user.mswiatlo:user.mswiatlo.9361530._000002.tree.root
root://fax.mwt2.org:1094//atlas/rucio/user.mswiatlo:user.mswiatlo.9361530._000001.tree.root
root://fax.mwt2.org:1094//atlas/rucio/user.mswiatlo:user.mswiatlo.9361530._000002.tree.root
root://fax.mwt2.org:1094//atlas/rucio/user.mswiatlo:user.mswiatlo.9361576._000001.tree.root
root://fax.mwt2.org:1094//atlas/rucio/user.mswiatlo:user.mswiatlo.9361576._000002.tree.root
root://fax.mwt2.org:1094//atlas/rucio/user.mswiatlo:user.mswiatlo.9361576._000001.tree.root
root://fax.mwt2.org:1094//atlas/rucio/user.mswiatlo:user.mswiatlo.9361576._000002.tree.root
root://fax.mwt2.org:1094//atlas/rucio/user.mswiatlo:user.mswiatlo.9361477._000001.tree.root
root://fax.mwt2.org:1094//atlas/rucio/user.mswiatlo:user.mswiatlo.9361477._000001.tree.root
root://fax.mwt2.org:1094//atlas/rucio/user.mswiatlo:user.mswiatlo.9361568._000001.tree.root
root://fax.mwt2.org:1094//atlas/rucio/user.mswiatlo:user.mswiatlo.9361568._000001.tree.root
root://fax.mwt2.org:1094//atlas/rucio/user.mswiatlo:user.mswiatlo.9361535._000002.tree.root
root://fax.mwt2.org:1094//atlas/rucio/user.mswiatlo:user.mswiatlo.9361535._000003.tree.root
root://fax.mwt2.org:1094//atlas/rucio/user.mswiatlo:user.mswiatlo.9361535._000002.tree.root
root://fax.mwt2.org:1094//atlas/rucio/user.mswiatlo:user.mswiatlo.9361535._000003.tree.root
root://fax.mwt2.org:1094//atlas/rucio/user.mswiatlo:user.mswiatlo.9361651._000001.tree.root
root://fax.mwt2.org:1094//atlas/rucio/user.mswiatlo:user.mswiatlo.9361651._000001.tree.root
root://fax.mwt2.org:1094//atlas/rucio/user.mswiatlo:user.mswiatlo.9361584._000001.tree.root
root://fax.mwt2.org:1094//atlas/rucio/user.mswiatlo:user.mswiatlo.9361584._000001.tree.root
root://fax.mwt2.org:1094//atlas/rucio/user.mswiatlo:user.mswiatlo.9361463._000001.tree.root
root://fax.mwt2.org:1094//atlas/rucio/user.mswiatlo:user.mswiatlo.9361463._000001.tree.root
root://fax.mwt2.org:1094//atlas/rucio/user.mswiatlo:user.mswiatlo.9361680._000001.tree.root
root://fax.mwt2.org:1094//atlas/rucio/user.mswiatlo:user.mswiatlo.9361680._000002.tree.root
root://fax.mwt2.org:1094//atlas/rucio/user.mswiatlo:user.mswiatlo.9361680._000001.tree.root
root://fax.mwt2.org:1094//atlas/rucio/user.mswiatlo:user.mswiatlo.9361680._000002.tree.root
root://fax.mwt2.org:1094//atlas/rucio/user.mswiatlo:user.mswiatlo.9361661._000001.tree.root
root://fax.mwt2.org:1094//atlas/rucio/user.mswiatlo:user.mswiatlo.9361661._000002.tree.root
root://fax.mwt2.org:1094//atlas/rucio/user.mswiatlo:user.mswiatlo.9361661._000001.tree.root
root://fax.mwt2.org:1094//atlas/rucio/user.mswiatlo:user.mswiatlo.9361661._000002.tree.root
root://fax.mwt2.org:1094//atlas/rucio/user.mswiatlo:user.mswiatlo.9361668._000001.tree.root
root://fax.mwt2.org:1094//atlas/rucio/user.mswiatlo:user.mswiatlo.9361668._000002.tree.root
root://fax.mwt2.org:1094//atlas/rucio/user.mswiatlo:user.mswiatlo.9361668._000001.tree.root
root://fax.mwt2.org:1094//atlas/rucio/user.mswiatlo:user.mswiatlo.9361668._000002.tree.root
root://fax.mwt2.org:1094//atlas/rucio/user.mswiatlo:user.mswiatlo.9361518._000001.tree.root
root://fax.mwt2.org:1094//atlas/rucio/user.mswiatlo:user.mswiatlo.9361518._000002.tree.root
root://fax.mwt2.org:1094//atlas/rucio/user.mswiatlo:user.mswiatlo.9361518._000001.tree.root
root://fax.mwt2.org:1094//atlas/rucio/user.mswiatlo:user.mswiatlo.9361518._000002.tree.root
root://fax.mwt2.org:1094//atlas/rucio/user.mswiatlo:user.mswiatlo.9361691._000001.tree.root
root://fax.mwt2.org:1094//atlas/rucio/user.mswiatlo:user.mswiatlo.9361691._000002.tree.root
root://fax.mwt2.org:1094//atlas/rucio/user.mswiatlo:user.mswiatlo.9361691._000001.tree.root
root://fax.mwt2.org:1094//atlas/rucio/user.mswiatlo:user.mswiatlo.9361691._000002.tree.root
root://fax.mwt2.org:1094//atlas/rucio/user.mswiatlo:user.mswiatlo.9361582._000001.tree.root
root://fax.mwt2.org:1094//atlas/rucio/user.mswiatlo:user.mswiatlo.9361582._000002.tree.root
root://fax.mwt2.org:1094//atlas/rucio/user.mswiatlo:user.mswiatlo.9361582._000001.tree.root
root://fax.mwt2.org:1094//atlas/rucio/user.mswiatlo:user.mswiatlo.9361582._000002.tree.root
root://fax.mwt2.org:1094//atlas/rucio/user.mswiatlo:user.mswiatlo.9361466._000001.tree.root
root://fax.mwt2.org:1094//atlas/rucio/user.mswiatlo:user.mswiatlo.9361466._000001.tree.root
root://fax.mwt2.org:1094//atlas/rucio/user.mswiatlo:user.mswiatlo.9361506._000001.tree.root
root://fax.mwt2.org:1094//atlas/rucio/user.mswiatlo:user.mswiatlo.9361506._000001.tree.root
root://fax.mwt2.org:1094//atlas/rucio/user.mswiatlo:user.mswiatlo.9361593._000001.tree.root
root://fax.mwt2.org:1094//atlas/rucio/user.mswiatlo:user.mswiatlo.9361593._000002.tree.root
root://fax.mwt2.org:1094//atlas/rucio/user.mswiatlo:user.mswiatlo.9361593._000001.tree.root
root://fax.mwt2.org:1094//atlas/rucio/user.mswiatlo:user.mswiatlo.9361593._000002.tree.root
root://fax.mwt2.org:1094//atlas/rucio/user.mswiatlo:user.mswiatlo.9361588._000001.tree.root
root://fax.mwt2.org:1094//atlas/rucio/user.mswiatlo:user.mswiatlo.9361588._000001.tree.root
root://fax.mwt2.org:1094//atlas/rucio/user.mswiatlo:user.mswiatlo.9361468._000001.tree.root
root://fax.mwt2.org:1094//atlas/rucio/user.mswiatlo:user.mswiatlo.9361468._000001.tree.root
root://fax.mwt2.org:1094//atlas/rucio/user.mswiatlo:user.mswiatlo.9361611._000001.tree.root
root://fax.mwt2.org:1094//atlas/rucio/user.mswiatlo:user.mswiatlo.9361611._000001.tree.root
root://fax.mwt2.org:1094//atlas/rucio/user.mswiatlo:user.mswiatlo.9361655._000001.tree.root
root://fax.mwt2.org:1094//atlas/rucio/user.mswiatlo:user.mswiatlo.9361655._000001.tree.root
root://fax.mwt2.org:1094//atlas/rucio/user.mswiatlo:user.mswiatlo.9361674._000001.tree.root
root://fax.mwt2.org:1094//atlas/rucio/user.mswiatlo:user.mswiatlo.9361674._000002.tree.root
root://fax.mwt2.org:1094//atlas/rucio/user.mswiatlo:user.mswiatlo.9361674._000001.tree.root
root://fax.mwt2.org:1094//atlas/rucio/user.mswiatlo:user.mswiatlo.9361674._000002.tree.root
root://fax.mwt2.org:1094//atlas/rucio/user.mswiatlo:user.mswiatlo.9361630._000001.tree.root
root://fax.mwt2.org:1094//atlas/rucio/user.mswiatlo:user.mswiatlo.9361630._000001.tree.root
root://fax.mwt2.org:1094//atlas/rucio/user.mswiatlo:user.mswiatlo.9361485._000001.tree.root
root://fax.mwt2.org:1094//atlas/rucio/user.mswiatlo:user.mswiatlo.9361485._000001.tree.root
root://fax.mwt2.org:1094//atlas/rucio/user.mswiatlo:user.mswiatlo.9361564._000001.tree.root
root://fax.mwt2.org:1094//atlas/rucio/user.mswiatlo:user.mswiatlo.9361564._000001.tree.root
root://fax.mwt2.org:1094//atlas/rucio/user.mswiatlo:user.mswiatlo.9361622._000001.tree.root
root://fax.mwt2.org:1094//atlas/rucio/user.mswiatlo:user.mswiatlo.9361622._000002.tree.root
root://fax.mwt2.org:1094//atlas/rucio/user.mswiatlo:user.mswiatlo.9361622._000001.tree.root
root://fax.mwt2.org:1094//atlas/rucio/user.mswiatlo:user.mswiatlo.9361622._000002.tree.root
root://fax.mwt2.org:1094//atlas/rucio/user.mswiatlo:user.mswiatlo.9361559._000001.tree.root
root://fax.mwt2.org:1094//atlas/rucio/user.mswiatlo:user.mswiatlo.9361559._000001.tree.root
root://fax.mwt2.org:1094//atlas/rucio/user.mswiatlo:user.mswiatlo.9361545._000001.tree.root
root://fax.mwt2.org:1094//atlas/rucio/user.mswiatlo:user.mswiatlo.9361545._000002.tree.root
root://fax.mwt2.org:1094//atlas/rucio/user.mswiatlo:user.mswiatlo.9361545._000001.tree.root
root://fax.mwt2.org:1094//atlas/rucio/user.mswiatlo:user.mswiatlo.9361545._000002.tree.root
root://fax.mwt2.org:1094//atlas/rucio/user.mswiatlo:user.mswiatlo.9361549._000001.tree.root
root://fax.mwt2.org:1094//atlas/rucio/user.mswiatlo:user.mswiatlo.9361549._000002.tree.root
root://fax.mwt2.org:1094//atlas/rucio/user.mswiatlo:user.mswiatlo.9361549._000001.tree.root
root://fax.mwt2.org:1094//atlas/rucio/user.mswiatlo:user.mswiatlo.9361549._000002.tree.root
root://fax.mwt2.org:1094//atlas/rucio/user.mswiatlo:user.mswiatlo.9361523._000001.tree.root
root://fax.mwt2.org:1094//atlas/rucio/user.mswiatlo:user.mswiatlo.9361523._000002.tree.root
root://fax.mwt2.org:1094//atlas/rucio/user.mswiatlo:user.mswiatlo.9361523._000001.tree.root
root://fax.mwt2.org:1094//atlas/rucio/user.mswiatlo:user.mswiatlo.9361523._000002.tree.root
root://fax.mwt2.org:1094//atlas/rucio/user.mswiatlo:user.mswiatlo.9361617._000001.tree.root
root://fax.mwt2.org:1094//atlas/rucio/user.mswiatlo:user.mswiatlo.9361617._000002.tree.root
root://fax.mwt2.org:1094//atlas/rucio/user.mswiatlo:user.mswiatlo.9361617._000001.tree.root
root://fax.mwt2.org:1094//atlas/rucio/user.mswiatlo:user.mswiatlo.9361617._000002.tree.root
root://fax.mwt2.org:1094//atlas/rucio/user.mswiatlo:user.mswiatlo.9361634._000001.tree.root
root://fax.mwt2.org:1094//atlas/rucio/user.mswiatlo:user.mswiatlo.9361634._000002.tree.root
root://fax.mwt2.org:1094//atlas/rucio/user.mswiatlo:user.mswiatlo.9361634._000001.tree.root
root://fax.mwt2.org:1094//atlas/rucio/user.mswiatlo:user.mswiatlo.9361634._000002.tree.root
root://fax.mwt2.org:1094//atlas/rucio/user.mswiatlo:user.mswiatlo.9361700._000001.tree.root
root://fax.mwt2.org:1094//atlas/rucio/user.mswiatlo:user.mswiatlo.9361700._000002.tree.root
root://fax.mwt2.org:1094//atlas/rucio/user.mswiatlo:user.mswiatlo.9361700._000001.tree.root
root://fax.mwt2.org:1094//atlas/rucio/user.mswiatlo:user.mswiatlo.9361700._000002.tree.root
root://fax.mwt2.org:1094//atlas/rucio/user.mswiatlo:user.mswiatlo.9361644._000001.tree.root
root://fax.mwt2.org:1094//atlas/rucio/user.mswiatlo:user.mswiatlo.9361644._000001.tree.root
root://fax.mwt2.org:1094//atlas/rucio/user.mswiatlo:user.mswiatlo.9361627._000001.tree.root
root://fax.mwt2.org:1094//atlas/rucio/user.mswiatlo:user.mswiatlo.9361627._000002.tree.root
root://fax.mwt2.org:1094//atlas/rucio/user.mswiatlo:user.mswiatlo.9361627._000001.tree.root
root://fax.mwt2.org:1094//atlas/rucio/user.mswiatlo:user.mswiatlo.9361627._000002.tree.root
root://fax.mwt2.org:1094//atlas/rucio/user.mswiatlo:user.mswiatlo.9361704._000001.tree.root
root://fax.mwt2.org:1094//atlas/rucio/user.mswiatlo:user.mswiatlo.9361704._000002.tree.root
root://fax.mwt2.org:1094//atlas/rucio/user.mswiatlo:user.mswiatlo.9361704._000001.tree.root
root://fax.mwt2.org:1094//atlas/rucio/user.mswiatlo:user.mswiatlo.9361704._000002.tree.root
root://fax.mwt2.org:1094//atlas/rucio/user.mswiatlo:user.mswiatlo.9361713._000001.tree.root
root://fax.mwt2.org:1094//atlas/rucio/user.mswiatlo:user.mswiatlo.9361713._000002.tree.root
root://fax.mwt2.org:1094//atlas/rucio/user.mswiatlo:user.mswiatlo.9361713._000001.tree.root
root://fax.mwt2.org:1094//atlas/rucio/user.mswiatlo:user.mswiatlo.9361713._000002.tree.root
root://fax.mwt2.org:1094//atlas/rucio/user.mswiatlo:user.mswiatlo.9361735._000001.tree.root
root://fax.mwt2.org:1094//atlas/rucio/user.mswiatlo:user.mswiatlo.9361735._000001.tree.root
root://fax.mwt2.org:1094//atlas/rucio/user.mswiatlo:user.mswiatlo.9361726._000001.tree.root
root://fax.mwt2.org:1094//atlas/rucio/user.mswiatlo:user.mswiatlo.9361726._000001.tree.root
root://fax.mwt2.org:1094//atlas/rucio/user.mswiatlo:user.mswiatlo.9361738._000001.tree.root
root://fax.mwt2.org:1094//atlas/rucio/user.mswiatlo:user.mswiatlo.9361738._000002.tree.root
root://fax.mwt2.org:1094//atlas/rucio/user.mswiatlo:user.mswiatlo.9361738._000001.tree.root
root://fax.mwt2.org:1094//atlas/rucio/user.mswiatlo:user.mswiatlo.9361738._000002.tree.root
root://fax.mwt2.org:1094//atlas/rucio/user.mswiatlo:user.mswiatlo.9361719._000001.tree.root
root://fax.mwt2.org:1094//atlas/rucio/user.mswiatlo:user.mswiatlo.9361719._000002.tree.root
root://fax.mwt2.org:1094//atlas/rucio/user.mswiatlo:user.mswiatlo.9361719._000003.tree.root
root://fax.mwt2.org:1094//atlas/rucio/user.mswiatlo:user.mswiatlo.9361719._000001.tree.root
root://fax.mwt2.org:1094//atlas/rucio/user.mswiatlo:user.mswiatlo.9361719._000002.tree.root
root://fax.mwt2.org:1094//atlas/rucio/user.mswiatlo:user.mswiatlo.9361719._000003.tree.root
root://fax.mwt2.org:1094//atlas/rucio/user.mswiatlo:user.mswiatlo.9361708._000001.tree.root
root://fax.mwt2.org:1094//atlas/rucio/user.mswiatlo:user.mswiatlo.9361708._000002.tree.root
root://fax.mwt2.org:1094//atlas/rucio/user.mswiatlo:user.mswiatlo.9361708._000003.tree.root
root://fax.mwt2.org:1094//atlas/rucio/user.mswiatlo:user.mswiatlo.9361708._000001.tree.root
root://fax.mwt2.org:1094//atlas/rucio/user.mswiatlo:user.mswiatlo.9361708._000002.tree.root
root://fax.mwt2.org:1094//atlas/rucio/user.mswiatlo:user.mswiatlo.9361708._000003.tree.root
